tomasulo_tb.vcd
$date
	Mon Feb 22 18:21:21 2021
$end
$version
	Icarus Verilog
$end
$timescale
	1s
$end
$scope module tomasulo_tb $end
$var reg 1 ! clk1 $end
$var reg 1 " clk2 $end
$var reg 5 # pc [4:0] $end
$var integer 32 $ clock_cycle [31:0] $end
$var integer 32 % i [31:0] $end
$scope module tomas $end
$var wire 1 ! clk1 $end
$var wire 1 " clk2 $end
$var wire 5 & pc [4:0] $end
$var wire 32 ' inst [31:0] $end
$var reg 5 ( decode_rd [4:0] $end
$var reg 5 ) decode_rs1 [4:0] $end
$var reg 5 * decode_rs2 [4:0] $end
$var reg 3 + fun3 [2:0] $end
$var reg 7 , fun7 [6:0] $end
$var reg 12 - lw_offset [11:0] $end
$var reg 7 . opcode [6:0] $end
$var integer 32 / ff [31:0] $end
$var integer 32 0 i [31:0] $end
$scope module k1 $end
$var wire 5 1 PC [4:0] $end
$var wire 1 ! clk1 $end
$var reg 32 2 inst_out [31:0] $end
$var integer 32 3 num [31:0] $end
$upscope $end
$upscope $end
$upscope $end
$enddefinitions $end
#0
$dumpvars
bx 3
bx 2
b0 1
b1000 0
bx /
bx .
bx -
bx ,
bx +
bx *
bx )
bx (
bx '
b0 &
b1000 %
b1 $
b0 #
0"
0!
$end
#5
b0 -
b11 .
b11 (
b10 +
b0 *
b10 )
b0 ,
b10010000110000011 '
b10010000110000011 2
b0 3
1!
#10
0!
#15
b1 #
b1 &
b1 1
1"
#20
b10 $
0"
#25
b100100 -
b1100011 .
b10 (
b100 +
b100 *
b11 )
b1 ,
b10010000011100000101100011 '
b10010000011100000101100011 2
b1 3
1!
#30
0!
#35
b10 #
b10 &
b10 1
1"
#40
b11 $
0"
#45
b100110 -
b1 (
b0 +
b110 *
b101 )
b10011000101000000011100011 '
b10011000101000000011100011 2
b10 3
1!
#50
0!
#55
b11 #
b11 &
b11 1
1"
#60
b100 $
0"
#65
b1000 -
b110011 .
b11 (
b1000 *
b110 )
b0 ,
b100000110000000110110011 '
b100000110000000110110011 2
b11 3
1!
#70
0!
#75
b100 #
b100 &
b100 1
1"
#80
b101 $
0"
#85
b100011 -
b1 (
b11 *
b1 )
b1 ,
b10001100001000000010110011 '
b10001100001000000010110011 2
b100 3
1!
#90
0!
#95
b101 #
b101 &
b101 1
1"
#100
b110 $
0"
#105
b10000000101 -
b100 (
b101 *
b100000 ,
b1000000010100001000001000110011 '
b1000000010100001000001000110011 2
b101 3
1!
#110
0!
#115
b110 #
b110 &
b110 1
1"
#120
b111 $
0"
#125
b10 -
b1 (
b10 *
b100 )
b0 ,
b1000100000000010110011 '
b1000100000000010110011 2
b110 3
1!
#130
0!
#135
b111 #
b111 &
b111 1
1"
#140
b1000 $
0"
